{"hash":"179440c8d5ee3432a5cbe712c16ac94f9cd52e73","data":{"posts":{"totalCount":40,"pageInfo":{"totalPages":4,"currentPage":4},"edges":[{"node":{"id":"1","title":"Hvorfor jeg ga opp Stockphotos","subtitle":"","abstract":"Først av alt så er jeg hobbyfotograf. Fotografere er en lidenskap like mye som en hobby. Altså ikke en del av mitt yrke. Likevel tar jeg meg tid til å fotografere. Jeg liker å tenke på komposisjon, lys, farger og alt det som gjør fotografering gøy. Mange av mine bilder blir liggende lagret på datamaskinen min. De blir aldri vist frem til noen.","bodytext":"<p>Opp igjennom årene så har jeg benyttet meg av ulike tjenester for å vise frem det jeg synes har vært mine flotteste bilder. Noen av tjenestene har kommet og andre tjenester har forsvunnet. Noen av tjenestene eksisterer i dag men i en annen form enn de opprinnelig hadde. Jeg har hatt egne nettsider med gallerier. Dette har ført til at jeg også har måttet bruke tid på vedlikehold av nettstedet fremfor å fotografere. I nyere tid har tjenester som <a href=\"https://www.instagram.com/sjsd/\">Instagram </a>og <a href=\"https://www.facebook.com/helge.johnsen\">Facebook</a> gjort det lett å dele bilder med de fordeler og ulemper det medfører.</p>\n<p><img src=\"https://cdn-images-1.medium.com/max/7300/1*dTVCMKl5sODpfX7TzSTZAA.jpeg\" alt=\"Det er ikke alltid det passer å ta med speilreflekskameraet og som folk flest så knipser jeg også en del hverdagsbilder med mobiltelefonen. De blir gjerne liggende uredigert eller så redigeres de på mobiltelefonen før de deles på f.eks. Facebook eller Instagram.\"><em>Det er ikke alltid det passer å ta med speilreflekskameraet og som folk flest så knipser jeg også en del hverdagsbilder med mobiltelefonen. De blir gjerne liggende uredigert eller så redigeres de på mobiltelefonen før de deles på f.eks. Facebook eller Instagram.</em></p>\n<p>Selv om jeg de senere årene har utviklet og forbedret mine fotografiske kunnskaper og uttrykk så har jeg kommet i et situasjon hvor de fleste bilder er av privat karakter. Som far som verner sterkt rundt mine barns rettigheter og ikke ønsker at andre skal kunne bruke bilder av dem annet enn å se på dem så har utvalget av bilder for offentligheten blitt mindre.</p>\n<p>I en travel hverdag mellom jobb og familieliv får jeg likevel litt tid til å pleie interessen for fotografering. Så hvordan skal jeg kunne dele mitt arbeid så andre kan ta del og ikke minst dra nytte av det? Svaret for meg ble å opprette en profil på et nettsted som tilbyr gratis bilder til fri bruk.</p>\n<p>Dette nettstedet har jeg benyttet meg mye av. Både privat men også i jobb. Så det føltes svært naturlig å gi noe tilbake til det samfunnet. Hvis stillingstittelen «stockphotographer» eksisterer så ble jeg en «stockphotographer».</p>\n<p>Det sies at den største kritikeren er seg selv. Det kjenner jeg meg godt igjen i. Først var jeg veldig skeptisk. Men etter å ha sett på mange av bildene som fantes på det nevnte nettstedet så kom jeg frem til at mine bilder er langt bedre enn de dårligste bildene jeg fant. Teknisk sett ihvertfall.</p>\n<p><img src=\"https://cdn-images-1.medium.com/max/10368/1*Kv2hKnI_bKQ_tKYhcNCVEw.jpeg\" alt=\"Jeg er glad i konkrete objekter i bildet men eksperimenterer gjerne i grenselandet til abstrakte bilder også.\"><em>Jeg er glad i konkrete objekter i bildet men eksperimenterer gjerne i grenselandet til abstrakte bilder også.</em></p>\n<p>Hva er et bra bilde? Det er umulig å svare på. Mye pga at det avhenger av smaken til den som ser på bildet. Jeg tror likevel vi er enige om noen punkter. Et bilde uten komprimering fremstår som mye klarere og bedre å se på enn et bilde som er så komprimert at det blir uklart. Allerede der var mine bilder langt bedre enn de dårligste bildene på samme nettsted.</p>\n<p>Så jeg lastet opp et lite knippe av det jeg mente var gode bilder som andre kunne ta nytte av. Så ble de liggende der og vente på å bli godkjent. De var synlig for dem som kunne deres adressen. De ville ikke dukke opp i noen lister eller i søk før en ansatt manuelt hadde godkjent dem. Dagene gikk. Ukene gikk. Skuffelsen kom.</p>\n<p>De ble aldri godkjent. Dette til tross for at de i mine øyne var langt bedre enn mange andres bilder. Det var da jeg begynte å undersøke hvem de andre fotografene var.</p>\n<p>Uventet fant jeg ut at bak mange av de dårlige bildene så befinner det seg ikke en privat person eller en profesjonell fotograf. Men firmaer. Firma som lastet opp bilder helt ukritisk til kvaliteten til bildet. Og nettstedet må i tillegg ha godkjent disse bildene uten kritisk sans.</p>\n<p>Jeg opplever det som dårlig gjort at mine bilder ble utkonkurrert av bilder som var sterkt komprimerte og i lav oppløsning bare fordi jeg er en enkelt person mens motparten er et firma.</p>\n<p>Min karrière som «stockphotographer» har så langt stoppet her.</p>\n<p><em>Grunnen til at jeg ikke navngir nevnt nettsted er at de ikke har svart på min henvendelse. Enn så lenge beholder jeg min profil men bare til de har gitt meg et svar.</em></p>\n<p><em><strong>Oppdatering 05.10.17</strong>: Alle bildene mine er nå godkjent. 2 ½ etter at jeg la de ut. Ingen svar fra ikkenavngitt nettsted.</em></p>\n","thumbnail":"","image":"","externalUrl":"","created_at":1559650230412,"updated_at":1559734030237,"path":"/skriverier/hvorfor-jeg-ga-opp-stockphotos/","date":"2017-10-07 00:00:00","source":"https://medium.com/@helgejohnsen/hvorfor-jeg-ga-opp-stockphotos-826d0377da69"}},{"node":{"id":"4","title":"Ta i bruk Autopass-brikken til å betale parkering","subtitle":"","abstract":"Her er en forretningsidé jeg ikke kommer til å tjene ei krone på. Men som forbruker kan spare penger på. Bruk Autopassbrikka til å betale for parkering. Idéen er ikke en gang ny. Det er gjort tester og forsøk på det.","bodytext":"<p>For meg så virker det som om viljen til å gjennomføre det er manglende. For hvert selskap og hver kommune som drifter en parkeringsplass sitter på hver sin tue og tjener penger på sine egne plasser, sine egne automater og sine egne bøter. I tillegg kommer spørsmålet om hvem som skal drift, hente inn penger og administrere parkeringsatsene. Det er vel her det stopper.</p>\n<p><img src=\"https://cdn-images-1.medium.com/max/2400/1*9szq_JUjzkKX7oHQHzfJJQ.jpeg\" alt=\"En brikke i vinduet kan spare deg for en hel del kostnader. F.eks. garantert å ikke få parkeringsbot igjen.\"><em>En brikke i vinduet kan spare deg for en hel del kostnader. F.eks. garantert å ikke få parkeringsbot igjen.</em></p>\n<p>Hver gang jeg kjører inn i et parkeringsanlegg så kan parkeringsselskapet registrere når jeg ankommer og når jeg forlater anlegget. Enten det er en større parkeringsplass eller parkeringshus. Det er så såre enkelt.</p>\n<p>Da kan kunden betale for den tiden han har parkert. Parkeringen blir ført opp på samme faktura som med øvrige betalinger for bompasseringer etc. Kan da vel ikke være så vanskelig det?</p>\n<p>Enklere enn å betale med kontant, kort eller APP på mobilen.</p>\n<p><em>Dette innlegget er en liten omskrivning av <a href=\"https://www.facebook.com/notes/helge-johnsen/ta-i-bruk-autopass-brikken-til-%C3%A5-betale-parkering/10153571325847401/\">mitt innlegg på Facebook</a> fra 30. mai 2016.</em></p>\n","thumbnail":"","image":"","externalUrl":"","created_at":1559716473327,"updated_at":1559740867656,"path":"/skriverier/ta-i-bruk-autopass-brikken-til-a-betale-parkering/","date":"2017-10-06 00:00:00","source":"https://medium.com/@helgejohnsen/ta-i-bruk-autopass-brikken-til-%C3%A5-betale-parkering-1857818aa009"}},{"node":{"id":"3","title":"- Jeg har da ingen hemmeligheter!","subtitle":"","abstract":"Det er da samme for meg hva folk vet om meg. Jeg har da ingen hemmeligheter. Har du hørt det før? Spesielt når man prøver å snakke om personvern. Argumenter som at man ikke har noen hemmeligheter er ofte det sterkeste kortet. Men er det så enkelt? Er det greit at vi lever i en transparent samfunn hvor alle kan vite alt om alle?","bodytext":"<p>Nei det er ikke så enkelt. For bak en hver dør kan det sitte en person som ønsker å utnytte denne informasjonen. Personvern handler om retten til et privatliv og retten til å bestemme over egne personopplysninger.</p>\n<p>Er det nødvendig at noen trenger å ta vare på hvilken nettsider du besøkte i lang tid? Du som aldri gjør noe ulovlig eller har noe å skjule? Hva om det kom på avveie og ble misbruk?</p>\n<p><img src=\"https://cdn-images-1.medium.com/max/7654/1*1hZhpiGDgClKdBreodkqIQ.jpeg\" alt=\"\"></p>\n<p>Jeg jobbet 10 år i en bransje med store utskiftninger av ansatte. Å finne mennesker som holdt ut og ble værende var krevende. I tillegg finne mennesker som var dyktige i faget. Gjennomtrekken var stor.</p>\n<p>Jeg vet at min leder var svært skeptisk i å ansette gravide. Mye fordi den ansatte ville være borte eller ikke kunne ta i et tak fysisk under svangerskapet. Så ville vedkommende være borte i lengre tid i permisjon. Etter endt permisjon vet vi at småbarnsforeldre ofte må tilpasse hverdagen etter tidspunkt for henting og levering i barnehage. I tillegg er det helt normalt at barn blir syke og at en av foreldrene må være hjemme. Altså stort fravær fra jobb.</p>\n<p>Det er ikke lov for en arbeidsgiver å spørre om slikt. Men før ansettelse ble det grundig undersøkt og det ble i gråsonen snakket om under intervju av den håpefulle som kanskje kunne få seg jobb. De slue ble gravide «etter» at arbeidskontrakten var signert og kanskje prøvetiden var over.</p>\n<p>Men hva om en potensiell arbeidsgiver kunne kjøpe denne informasjonen på forhånd? Alle søknader og CV-er ble registrert i et datasystem. Leverandøren kunne lett kjøpt din søkehistorikk eller surfevaner og koblet det opp mot din jobbsøknad. Hva om du da ble filtrert vekk og aldri fikk sjansen til å få en jobb pga dette?</p>\n<p>Hva om du har søkt etter barnevogner fordi din venninne eller søster er gravid. Så mister du sjansen til å få drømmejobben. Bare fordi feilaktige antagelser basert på manglende personvern ble koblet mot ditt navn.</p>\n<p>Hva om du er homofil men bor langt inne i skapet? Men på nett har du kontakt med en hemmelig elsker eller elskerinne. Fortsatt ikke ulovlig. Men hva om du mister sjansen til å få drømmejobben fordi en sjef sitter på et kontor og er homofob?</p>\n<p>Det er ikke bare slue arbeidsgivere som kan finne på å ta en grundig bakgrunnsjekk av deg. I enhver situasjon sitter det mennesker som ønsker å vite mest mulig om deg og ditt virke. Spesielt ditt privatliv. Og de ønsker å vite mest mulig for å ta vare på det i all evighet slik at de kan koble det sammen med andre data.</p>\n<p><img src=\"https://cdn-images-1.medium.com/max/3840/1*PcL2Y20NBzJWFa2sYbUXoQ.jpeg\" alt=\"\"></p>\n<p>**GDPR **(<strong>G</strong>eneral <strong>D</strong>ata <strong>P</strong>rotection <strong>R</strong>egulation) innføres 25. mai 2018 i norge og EU. Bjørn Stærk har skrevet <a href=\"https://www.aftenposten.no/meninger/kronikk/i/V00pr/Personvernrevolusjonen-er-pa-vei-Snart-gir-EU-deg-mer-kontroll-over-personopplysningene-dine--Bjorn-Stark\">en kortfattet og grei tekst som forklarer GDPR</a> for de fleste av oss. Datatilsynet har en <a href=\"https://www.datatilsynet.no/regelverk-og-skjema/veiledere/hva-betyr/\">veileder</a> som er verdt å se på.</p>\n<blockquote>\n<p>Personvernforordningen GDPR — General Data Protection Regulation — vil gjøre det vanskeligere for myndigheter og næringslivet å lagre informasjon om deg, og gir deg rett til å vite hva de vet, rette det, eller få det slettet.</p>\n</blockquote>\n<p>GDPR vil ikke hindre de store i å samle inn data om deg. Men de må forklare hva de skal med dataene. Du kan kreve retten til å få vite hva de vet om deg. Du kan også kreve å få den informasjonen slettet. Som Bjørn skriver i teksten:</p>\n<blockquote>\n<p>Kjernen i GDPR er at du bestemmer over informasjon om deg, og at man ikke skal sitte på flere personopplysninger enn de må. Hvis et firma ikke trenger å vite telefonnummeret ditt, så skal de ikke ha telefonnummeret ditt.</p>\n</blockquote>\n<p>Så når det blir vanskeligere å samle inn informasjon om deg så blir det også vanskeligere å misbruke den. Du vil i fremtiden får større mulighet til å kontrollere hva som blir samlet inn av informasjon om deg.</p>\n<p>I begynnelsen vil nok en del nettsteder, systemer, APP-er osv. komme med en rekke spørmål som du som bruker må akseptere for å kunne bruke deres nettsted, system, APP osv. Svakheten er at veldig mange gir dem tilgang til hva som helst. <em>De har da ingenting å skjule</em>.</p>\n<p>Det blir uansett veldig spennende å se hvordan dette påvirker internett og bruken av datasystemer i fremtiden.</p>\n","thumbnail":"","image":"","externalUrl":"","created_at":1559715645273,"updated_at":1559740861979,"path":"/skriverier/jeg-har-da-ingen-hemmeligheter/","date":"2017-10-05 00:00:00","source":"https://medium.com/@helgejohnsen/jeg-har-da-ingen-hemmeligheter-bab36a7109f1"}},{"node":{"id":"2","title":"Er det dette vi skal leve av etter oljen?","subtitle":"","abstract":"Prøve noe. Feile. Undre. Justere. Prøve igjen. Feile igjen. Klø seg i hode. Justere. Prøve på nytt. Få til noe. Den gode mestringfølelsen. Lære noe.\n","bodytext":"<p>Ingen er født verdensmestere. Med litt øving så kan vi alle få til noe. Det gir ikke noe mening i at alle skal være best i alt. Men om alle prøver litt ulike ting så kan mange får til mye. Det er derfor vi sender ungene våre på skole. De skal kunne prøve mye, feile litt, lære litt og finne ut av hva de er gode på.</p>\n<p>I mine øyne så er lek den beste måten å bli introdusert for noe nytt. For når barna kommer hjem fra barnehagen eller skolen og svarer at de har lekt hele dagen så høres det ut som at de ikke har lært noe. Men det er feil.</p>\n<p>Barna i barnehagen har lekt ja. De har også lært å stå i kø. Vente på tur. Øvd på å holde skjeen riktig vei når de fikk servert suppe. De har snappet opp nye ord og uttrykk. Og hvis de kunne de fra før så har de kanskje lært å uttale de riktig. De har lært samspill med andre mennesker.</p>\n<p>Så ja, de har nok lekt hele dagen. Men de har uten at de selv er klar over det lært en hel del. De har kanskje feilet en del også. For før man lærer å stå i kø eller vente på sin tur så feilet de på nettopp disse tingene.</p>\n<p>Astrid Lindgren sin karakter Pippi Langstrømpe sa det så klokt: Det har jeg aldri gjort før, så det klarer jeg helt sikkert.</p>\n<p>Så var det vi voksne da. Vi som ikke leker lengre. Vi er jo tross alt voksne. Livet er alvorlig nå. Selv bedriftsidrettlaget er preget av blodig alvor. I noen tilfeller med trykk på blodig.</p>\n<p>Men skal vi lære noe nytt så gjelder fortsatt lek som beste innfallsvinkel for å lære noe. Det gjelder for oss voksne like mye som for barna våre.</p>\n<p><img src=\"https://cdn-images-1.medium.com/max/10368/1*UUVR9BiBOPnH6nljTG73fw.jpeg\" alt=\"Øvelse gjør mester. Man må våge å leke for å lære.\"><em>Øvelse gjør mester. Man må våge å leke for å lære.</em></p>\n<p>Nå skal jeg komme frem til hvorfor jeg egentlig skriver denne teksten. Årsaken er kommentarfeltene på internett. Stedet hvor enkelte voksne mennesker opptrer som barn. Faktisk mye verre en barn. For barn lærer å si unnskyld. De lærer at man ikke skal si stygge ting til andre. De lærer folkeskikk. Men det er ikke all lærdom som blir sittende. Man må repetere flere ganger for at det skal bli.</p>\n<p>Men nok om det, jeg skriver ikke dette for å ta et oppgjør med kommentarfeltkulturen. Men kommentarer i kommentarfeltene har gitt meg en grunn til å skrive. Flere av nettavisene jeg leser skriver om teknologi. Stort som smått. I mange tilfeller er det alltids noen som kommer med nedsettende kommentarer som <em>er det dette vi skal leve av etter oljen?</em> I de fleste tilfeller er det ikke en reelt spørsmål. Det er en spydig kommentar om nettopp dette.</p>\n<p>Jeg er i mange tilfeller han som har motsatt innstilling til de som undrer seg over at folk bruker tid på uviktig ting. Mye fordi jeg er positiv til ny teknologi, forskning og ikke minst undring over ting. Jeg hilser det velkommen med åpne armer. Men jeg er også klok nok til å ikke gå inn i en diskusjon hvor nivået har utgangspunkt i en spydig kommentar. For kort tid siden ble jeg selv utsatt for en slik kommentar om min hobby.</p>\n<blockquote>\n<p>Er det dette vi skal leve av etter oljen?</p>\n</blockquote>\n<p>Svaret er nei. Min hobby vil ikke øke bruttonasjonalproduktet til Norge. Ikke i dag og ikke etter at oljen tar slutt. På samme måte som at tusenvis av mennesker spiller fotball på løkka, slår golf eller strikker votter mens de gynger i godstolen og ser på Norge Rundt.</p>\n<p>Men jeg tror på fremskritt. En personlig utvikling. Enten det er å spille litt bedre på fotballbanen, senke handikapet på golfbanen eller lære seg å strikke intrikate mønster.</p>\n<p>Alle mennesker har godt av mestringsfølelse. Det å utvikle seg selv og det å ha noe å tenke på. Det alene er verdt å ha en hobby. I fugleperspektiv så gir det ikke noe tilbake til samfunnet så vi kan leve livets gode dager selv etter at oljen forsvinner.</p>\n<p>Fremfor å se på fjernsyn så brukte jeg noen timer på kveldstid i sommer. Noen timer på et hobbyprosjekt som endte opp med en bilderamme som viser antallet som liker en bestemt Facebookside. Vil den redde Norge etter at oljen forsvinner? Nei. Kunne jeg sett på fjernsynet og reddet Norge? Nei.</p>\n<p>Men det ga meg en god følelse. Jeg lærte noe nytt. Noe av det jeg lærte har jeg fått brukt for i min jobb.</p>\n","thumbnail":"","image":"","externalUrl":"","created_at":1559715473843,"updated_at":1559740855163,"path":"/skriverier/er-det-dette-vi-skal-leve-av-etter-oljen/","date":"2017-10-04 00:00:00","source":"https://medium.com/@helgejohnsen/er-det-dette-vi-skal-leve-av-etter-oljen-6c98f2300aa0"}}]}},"context":{}}